{
  "productos": [
    {
      "imagen": "imagen1",
      "descripcion": "Macbook Air 13 Intel Core i5",
      "marca": "Apple",
      "precio": "$5.137.000",
      "valor": 5137000,
      "categoria": "Tecnologia"
    },
    {
      "imagen": "imagen2",
      "descripcion": "Computador Portátil Acer Core I5 4gb 1tb",
      "marca": "Acer",
      "precio": "$1.862.890",
      "valor": 1862890,
      "categoria": "Tecnologia"
    },
    {
      "imagen": "imagen3",
      "descripcion": "Sofá Amoblando Vivir Cuero Sintético Café",
      "marca": "Amoblando Pullman",
      "precio": "$550.000",
      "valor": 550000,
      "categoria": "Hogar"
    },
    {
      "imagen": "imagen4",
      "descripcion": "Camarote Doble Piso - Babilon",
      "marca": "Muebles Juventud",
      "precio": "$1.335.900",
      "valor": 1335900,
      "categoria": "Hogar"
    },
    {
      "imagen": "imagen5",
      "descripcion": "Colador Metalico - 26 cm",
      "marca": "Finlandek",
      "precio": "$22.320",
      "valor": 22320,
      "categoria": "Cocina"
    },
    {
      "imagen": "imagen6",
      "descripcion": "Prensa Ajos Metal Y Asa Soft",
      "marca": "Finlandek",
      "precio": "$13.520",
      "valor": 13520,
      "categoria": "Cocina"
    }
  ]
}